{
  "name": "Docking",
  "key": "dock.",
  "measurements": [
    {
      "name": "Docking x Angle",
      "key": "dock.ax",
      "values": [
        {
          "key": "value",
          "name": "Value",
          "format": "float",
          "hints": {
            "range": 1
          }
        },
        {
          "key": "utc",
          "source": "timestamp",
          "name": "Timestamp",
          "format": "utc",
          "hints": {
            "domain": 1
          }
        }
      ]
    },
    {
      "name": "Docking Pitch Angle",
      "key": "dock.ay",
      "values": [
        {
          "key": "value",
          "name": "Value",
          "format": "float",
          "hints": {
            "range": 1
          }
        },
        {
          "key": "utc",
          "source": "timestamp",
          "name": "Timestamp",
          "format": "utc",
          "hints": {
            "domain": 1
          }
        }
      ]
    },
    {
      "name": "Docking z Angle",
      "key": "dock.az",
      "values": [
        {
          "key": "value",
          "name": "Value",
          "format": "float",
          "hints": {
            "range": 1
          }
        },
        {
          "key": "utc",
          "source": "timestamp",
          "name": "Timestamp",
          "format": "utc",
          "hints": {
            "domain": 1
          }
        }
      ]
    },
    {
      "name": "Target x Distance",
      "key": "dock.x",
      "values": [
        {
          "key": "value",
          "name": "Value",
          "format": "float",
          "hints": {
            "range": 1
          }
        },
        {
          "key": "utc",
          "source": "timestamp",
          "name": "Timestamp",
          "format": "utc",
          "hints": {
            "domain": 1
          }
        }
      ]
    },
    {
      "name": "Target y Distance",
      "key": "dock.y",
      "values": [
        {
          "key": "value",
          "name": "Value",
          "format": "float",
          "hints": {
            "range": 1
          }
        },
        {
          "key": "utc",
          "source": "timestamp",
          "name": "Timestamp",
          "format": "utc",
          "hints": {
            "domain": 1
          }
        }
      ]
    }
  ]
}
